#type;lvl;rate

# experience point rate
exp;1;1
exp;2;1
exp;3;1
exp;4;1
exp;5;1
exp;6;1
exp;7;1
exp;8;1
exp;9;1
exp;10;1
exp;11;1
exp;12;1
exp;13;1
exp;14;1
exp;15;1
exp;16;1
exp;17;1
exp;18;1
exp;19;1
exp;20;1
exp;21;1
exp;22;1
exp;23;1
exp;24;1
exp;25;1
exp;26;1
exp;27;1
exp;28;1
exp;29;1
exp;30;1
exp;31;1
exp;32;1
exp;33;1
exp;34;1
exp;35;1
exp;36;1
exp;37;1
exp;38;1
exp;39;1
exp;40;1
exp;41;1
exp;42;1
exp;43;1
exp;44;1
exp;45;1
exp;46;1
exp;47;1
exp;48;1
exp;49;1
exp;50;1
exp;51;1
exp;52;1
exp;53;1
exp;54;1
exp;55;1
exp;56;1
exp;57;1
exp;58;1
exp;59;1
exp;60;1
exp;61;1
exp;62;1
exp;63;1
exp;64;1
exp;65;1
exp;66;1
exp;67;1
exp;68;1
exp;69;1
exp;70;1
exp;71;1
exp;72;1
exp;73;1
exp;74;1
exp;75;1
exp;76;1
exp;77;1
exp;78;1
exp;79;1
exp;80;1
exp;81;1
exp;82;1
exp;83;1
exp;84;1
exp;85;1

#skill point rate
sp;1;1
sp;2;1
sp;3;1
sp;4;1
sp;5;1
sp;6;1
sp;7;1
sp;8;1
sp;9;1
sp;10;1
sp;11;1
sp;12;1
sp;13;1
sp;14;1
sp;15;1
sp;16;1
sp;17;1
sp;18;1
sp;19;1
sp;20;1
sp;21;1
sp;22;1
sp;23;1
sp;24;1
sp;25;1
sp;26;1
sp;27;1
sp;28;1
sp;29;1
sp;30;1
sp;31;1
sp;32;1
sp;33;1
sp;34;1
sp;35;1
sp;36;1
sp;37;1
sp;38;1
sp;39;1
sp;40;1
sp;41;1
sp;42;1
sp;43;1
sp;44;1
sp;45;1
sp;46;1
sp;47;1
sp;48;1
sp;49;1
sp;50;1
sp;51;1
sp;52;1
sp;53;1
sp;54;1
sp;55;1
sp;56;1
sp;57;1
sp;58;1
sp;59;1
sp;60;1
sp;61;1
sp;62;1
sp;63;1
sp;64;1
sp;65;1
sp;66;1
sp;67;1
sp;68;1
sp;69;1
sp;70;1
sp;71;1
sp;72;1
sp;73;1
sp;74;1
sp;75;1
sp;76;1
sp;77;1
sp;78;1
sp;79;1
sp;80;1
sp;81;1
sp;82;1
sp;83;1
sp;84;1
sp;85;1

# items drop rate
item_rate;1;1
item_rate;2;1
item_rate;3;1
item_rate;4;1
item_rate;5;1
item_rate;6;1
item_rate;7;1
item_rate;8;1
item_rate;9;1
item_rate;10;1
item_rate;11;1
item_rate;12;1
item_rate;13;1
item_rate;14;1
item_rate;15;1
item_rate;16;1
item_rate;17;1
item_rate;18;1
item_rate;19;1
item_rate;20;1
item_rate;21;1
item_rate;22;1
item_rate;23;1
item_rate;24;1
item_rate;25;1
item_rate;26;1
item_rate;27;1
item_rate;28;1
item_rate;29;1
item_rate;30;1
item_rate;31;1
item_rate;32;1
item_rate;33;1
item_rate;34;1
item_rate;35;1
item_rate;36;1
item_rate;37;1
item_rate;38;1
item_rate;39;1
item_rate;40;1
item_rate;41;1
item_rate;42;1
item_rate;43;1
item_rate;44;1
item_rate;45;1
item_rate;46;1
item_rate;47;1
item_rate;48;1
item_rate;49;1
item_rate;50;1
item_rate;51;1
item_rate;52;1
item_rate;53;1
item_rate;54;1
item_rate;55;1
item_rate;56;1
item_rate;57;1
item_rate;58;1
item_rate;59;1
item_rate;60;1
item_rate;61;1
item_rate;62;1
item_rate;63;1
item_rate;64;1
item_rate;65;1
item_rate;66;1
item_rate;67;1
item_rate;68;1
item_rate;69;1
item_rate;70;1
item_rate;71;1
item_rate;72;1
item_rate;73;1
item_rate;74;1
item_rate;75;1
item_rate;76;1
item_rate;77;1
item_rate;78;1
item_rate;79;1
item_rate;80;1
item_rate;81;1
item_rate;82;1
item_rate;83;1
item_rate;84;1
item_rate;85;1

#adena drop rate
adena_rate;1;1
adena_rate;2;1
adena_rate;3;1
adena_rate;4;1
adena_rate;5;1
adena_rate;6;1
adena_rate;7;1
adena_rate;8;1
adena_rate;9;1
adena_rate;10;1
adena_rate;11;1
adena_rate;12;1
adena_rate;13;1
adena_rate;14;1
adena_rate;15;1
adena_rate;16;1
adena_rate;17;1
adena_rate;18;1
adena_rate;19;1
adena_rate;20;1
adena_rate;21;1
adena_rate;22;1
adena_rate;23;1
adena_rate;24;1
adena_rate;25;1
adena_rate;26;1
adena_rate;27;1
adena_rate;28;1
adena_rate;29;1
adena_rate;30;1
adena_rate;31;1
adena_rate;32;1
adena_rate;33;1
adena_rate;34;1
adena_rate;35;1
adena_rate;36;1
adena_rate;37;1
adena_rate;38;1
adena_rate;39;1
adena_rate;40;1
adena_rate;41;1
adena_rate;42;1
adena_rate;43;1
adena_rate;44;1
adena_rate;45;1
adena_rate;46;1
adena_rate;47;1
adena_rate;48;1
adena_rate;49;1
adena_rate;50;1
adena_rate;51;1
adena_rate;52;1
adena_rate;53;1
adena_rate;54;1
adena_rate;55;1
adena_rate;56;1
adena_rate;57;1
adena_rate;58;1
adena_rate;59;1
adena_rate;60;1
adena_rate;61;1
adena_rate;62;1
adena_rate;63;1
adena_rate;64;1
adena_rate;65;1
adena_rate;66;1
adena_rate;67;1
adena_rate;68;1
adena_rate;69;1
adena_rate;70;1
adena_rate;71;1
adena_rate;72;1
adena_rate;73;1
adena_rate;74;1
adena_rate;75;1
adena_rate;76;1
adena_rate;77;1
adena_rate;78;1
adena_rate;79;1
adena_rate;80;1
adena_rate;81;1
adena_rate;82;1
adena_rate;83;1
adena_rate;84;1
adena_rate;85;1

#spoil drop rate
spoil_rate;1;1
spoil_rate;2;1
spoil_rate;3;1
spoil_rate;4;1
spoil_rate;5;1
spoil_rate;6;1
spoil_rate;7;1
spoil_rate;8;1
spoil_rate;9;1
spoil_rate;10;1
spoil_rate;11;1
spoil_rate;12;1
spoil_rate;13;1
spoil_rate;14;1
spoil_rate;15;1
spoil_rate;16;1
spoil_rate;17;1
spoil_rate;18;1
spoil_rate;19;1
spoil_rate;20;1
spoil_rate;21;1
spoil_rate;22;1
spoil_rate;23;1
spoil_rate;24;1
spoil_rate;25;1
spoil_rate;26;1
spoil_rate;27;1
spoil_rate;28;1
spoil_rate;29;1
spoil_rate;30;1
spoil_rate;31;1
spoil_rate;32;1
spoil_rate;33;1
spoil_rate;34;1
spoil_rate;35;1
spoil_rate;36;1
spoil_rate;37;1
spoil_rate;38;1
spoil_rate;39;1
spoil_rate;40;1
spoil_rate;41;1
spoil_rate;42;1
spoil_rate;43;1
spoil_rate;44;1
spoil_rate;45;1
spoil_rate;46;1
spoil_rate;47;1
spoil_rate;48;1
spoil_rate;49;1
spoil_rate;50;1
spoil_rate;51;1
spoil_rate;52;1
spoil_rate;53;1
spoil_rate;54;1
spoil_rate;55;1
spoil_rate;56;1
spoil_rate;57;1
spoil_rate;58;1
spoil_rate;59;1
spoil_rate;60;1
spoil_rate;61;1
spoil_rate;62;1
spoil_rate;63;1
spoil_rate;64;1
spoil_rate;65;1
spoil_rate;66;1
spoil_rate;67;1
spoil_rate;68;1
spoil_rate;69;1
spoil_rate;70;1
spoil_rate;71;1
spoil_rate;72;1
spoil_rate;73;1
spoil_rate;74;1
spoil_rate;75;1
spoil_rate;76;1
spoil_rate;77;1
spoil_rate;78;1
spoil_rate;79;1
spoil_rate;80;1
spoil_rate;81;1
spoil_rate;82;1
spoil_rate;83;1
spoil_rate;84;1
spoil_rate;85;1
